 * Serving Flask app "app" (lazy loading)
 * Environment: production
   WARNING: This is a development server. Do not use it in a production deployment.
   Use a production WSGI server instead.
 * Debug mode: off
 * Running on http://127.0.0.1:5000/ (Press CTRL+C to quit)
127.0.0.1 - - [12/Feb/2021 16:20:17] "POST / HTTP/1.1" 405 -
127.0.0.1 - - [12/Feb/2021 16:20:24] "POST / HTTP/1.1" 405 -
127.0.0.1 - - [12/Feb/2021 16:20:29] "GET / HTTP/1.1" 200 -
127.0.0.1 - - [12/Feb/2021 16:20:29] "GET /static/assets/style.css HTTP/1.1" 304 -
127.0.0.1 - - [12/Feb/2021 16:20:29] "GET /static/assets/emoji.css HTTP/1.1" 200 -
127.0.0.1 - - [12/Feb/2021 16:20:29] "GET /static/assets/twemoji.min.js HTTP/1.1" 404 -
127.0.0.1 - - [12/Feb/2021 16:20:29] "GET /static/assets/emoji.js HTTP/1.1" 200 -
127.0.0.1 - - [12/Feb/2021 16:20:29] "GET /static/images/no.png HTTP/1.1" 404 -
127.0.0.1 - - [12/Feb/2021 16:20:29] "GET /static/images/no.png HTTP/1.1" 404 -
127.0.0.1 - - [12/Feb/2021 16:22:25] "GET / HTTP/1.1" 200 -
127.0.0.1 - - [12/Feb/2021 16:22:25] "GET /static/assets/twemoji.min.js HTTP/1.1" 404 -
127.0.0.1 - - [12/Feb/2021 16:22:25] "GET /static/images/no.png HTTP/1.1" 404 -
127.0.0.1 - - [12/Feb/2021 16:22:25] "GET /static/images/no.png HTTP/1.1" 404 -
app.py:60: DeprecationWarning: insert is deprecated. Use insert_one or insert_many instead.
  todos.insert({ "name":name, "desc":desc, "date":date, "pr":pr, "done":"no"})
127.0.0.1 - - [12/Feb/2021 16:22:30] "POST /action HTTP/1.1" 302 -
127.0.0.1 - - [12/Feb/2021 16:22:30] "GET /list HTTP/1.1" 200 -
127.0.0.1 - - [12/Feb/2021 16:22:30] "GET /static/assets/twemoji.min.js HTTP/1.1" 404 -
127.0.0.1 - - [12/Feb/2021 16:22:30] "GET /static/images/yes.png HTTP/1.1" 404 -
127.0.0.1 - - [12/Feb/2021 16:22:30] "GET /static/images/no.png HTTP/1.1" 404 -
127.0.0.1 - - [12/Feb/2021 16:22:30] "GET /static/images/yes.png HTTP/1.1" 404 -
127.0.0.1 - - [12/Feb/2021 16:22:30] "GET /static/images/yes.png HTTP/1.1" 404 -
127.0.0.1 - - [12/Feb/2021 16:22:30] "GET /static/images/no.png HTTP/1.1" 404 -
 * Serving Flask app "app" (lazy loading)
 * Environment: production
   WARNING: This is a development server. Do not use it in a production deployment.
   Use a production WSGI server instead.
 * Debug mode: off
 * Running on http://127.0.0.1:5000/ (Press CTRL+C to quit)
127.0.0.1 - - [15/Feb/2021 15:51:10] "GET / HTTP/1.1" 200 -
127.0.0.1 - - [15/Feb/2021 15:51:10] "GET /static/assets/twemoji.min.js HTTP/1.1" 404 -
127.0.0.1 - - [15/Feb/2021 15:51:10] "GET /static/assets/emoji.js HTTP/1.1" 200 -
127.0.0.1 - - [15/Feb/2021 15:51:10] "GET /static/assets/emoji.css HTTP/1.1" 200 -
127.0.0.1 - - [15/Feb/2021 15:51:10] "GET /static/images/no.png HTTP/1.1" 404 -
127.0.0.1 - - [15/Feb/2021 15:51:10] "GET /static/images/no.png HTTP/1.1" 404 -
127.0.0.1 - - [15/Feb/2021 15:51:10] "GET /static/images/no.png HTTP/1.1" 404 -
